<mxfile modified="2023-06-29T16:37:46.392Z" host="atlas-expert-system-dev.web.cern.ch" agent="5.0 (X11; Linux x86_64) AppleWebKit/537.36 (KHTML, like Gecko) Chrome/113.0.0.0 Safari/537.36" etag="IE3K9QR4Q6L8ZQk1_oio" compressed="false" version="20.2.8" type="device">
  <diagram id="A_F7fM3IIW2rhll4Kbgx" name="Page-1">
    <mxGraphModel dx="2889" dy="1189" grid="1" gridSize="10" guides="1" tooltips="1" connect="1" arrows="1" fold="1" page="1" pageScale="1" pageWidth="827" pageHeight="1169" math="0" shadow="0">
      <root>
        <mxCell id="0" />
        <mxCell id="1" parent="0" />
        <mxCell id="YiwyaDK8QkDTvDo_OLSB-2" value="" style="rounded=0;whiteSpace=wrap;html=1;strokeColor=#000000;strokeWidth=2;fillColor=#D7D9FF;fontSize=11;align=center;" parent="1" vertex="1">
          <mxGeometry x="-820" y="10" width="1701.3" height="941.5" as="geometry" />
        </mxCell>
        <object label="&lt;font style=&quot;font-size: 15px&quot;&gt;&lt;b&gt;USA15&lt;/b&gt;&lt;/font&gt;" alarms="AL_INF_Smoke_USA15L2_GasRoom,&#xa;AL_INF_Smoke_USA15L3_CVArea,&#xa;AL_INF_Smoke_USAL3_CVArea,&#xa;AL_INF_Smoke_USA15L2_MagnetControlRoom,&#xa;AL_INF_Smoke_USA15L2_Entresol,&#xa;AL_INF_Smoke_USA15L1_ElevatorArea,&#xa;AL_INF_Smoke_USA15L1_TransformersRoom ,&#xa;AL_INF_Smoke_USA15L3_MagnetArea,&#xa;AL_INF_Smoke_USA15L2_SafePowerRoom,&#xa;AL_INF_Smoke_USA15L2_MagnetArea,&#xa;AL_INF_Smoke_USA15L1_AnnexeCVRoom,&#xa;AL_INF_Smoke_USA15L1_CVRoom,&#xa;AL_INF_Smoke_USA15L2_RackRoom,&#xa;AL_INF_Smoke_USA15_2Areas,&#xa;AL_INF_Smoke_USA15L1_RackRoomSideC,&#xa;AL_INF_Smoke_USA15L1_RackRoomSideA,&#xa;AL_INF_Smoke_USA15L1_CryogenicsArea,&#xa;AL_INF_USA15andUX15_Flooding&#xa;&#xa;&#xa;&#xa;&#xa;&#xa;&#xa;&#xa;&#xa;&#xa;&#xa;&#xa;" id="YiwyaDK8QkDTvDo_OLSB-3">
          <mxCell style="rounded=0;whiteSpace=wrap;html=1;strokeColor=#000000;strokeWidth=2;fillColor=#FFFFFF;fontSize=11;align=center;fontColor=#000000;" parent="1" vertex="1">
            <mxGeometry x="-748.699951171875" y="34.05" width="80" height="30" as="geometry" />
          </mxCell>
        </object>
        <mxCell id="YiwyaDK8QkDTvDo_OLSB-4" value="&lt;font style=&quot;font-size: 15px&quot;&gt;&lt;b&gt;Level 1&lt;/b&gt;&lt;/font&gt;" style="text;html=1;strokeColor=none;fillColor=none;align=center;verticalAlign=middle;whiteSpace=wrap;rounded=0;fontSize=11;fontColor=#000000;" parent="1" vertex="1">
          <mxGeometry x="-738.5" y="79.05" width="60" height="15" as="geometry" />
        </mxCell>
        <object label="22-21" placeholders="1" UID="Y.22-21.A1" id="IS0zlsRFEMftx8v_LcZY-1">
          <mxCell style="rounded=0;whiteSpace=wrap;strokeWidth=2;fontSize=14;html=1;spacing=0;spacingTop=-2;verticalAlign=top;fontStyle=1;fillColor=#FFFFFF;strokeColor=#000000;fontColor=#000000;" parent="1" vertex="1">
            <mxGeometry x="363" y="149.55" width="55" height="65" as="geometry" />
          </mxCell>
        </object>
        <object label="23-21" placeholders="1" UID="Y.23-21.A1" id="IS0zlsRFEMftx8v_LcZY-6">
          <mxCell style="rounded=0;whiteSpace=wrap;strokeWidth=2;fontSize=14;html=1;spacing=0;spacingTop=-2;verticalAlign=top;fontStyle=1;fillColor=#FFFFFF;strokeColor=#000000;fontColor=#000000;" parent="1" vertex="1">
            <mxGeometry x="418" y="149.55" width="55" height="65" as="geometry" />
          </mxCell>
        </object>
        <object label="24-21" placeholders="1" UID="Y.24-21.A1" id="IS0zlsRFEMftx8v_LcZY-7">
          <mxCell style="rounded=0;whiteSpace=wrap;strokeWidth=2;fontSize=14;html=1;spacing=0;spacingTop=-2;verticalAlign=top;fontStyle=1;fillColor=#FFFFFF;strokeColor=#000000;fontColor=#000000;" parent="1" vertex="1">
            <mxGeometry x="473" y="149.55" width="55" height="65" as="geometry" />
          </mxCell>
        </object>
        <object label="25-21" placeholders="1" UID="Y.25-21.A1" id="IS0zlsRFEMftx8v_LcZY-8">
          <mxCell style="rounded=0;whiteSpace=wrap;strokeWidth=2;fontSize=14;html=1;spacing=0;spacingTop=-2;verticalAlign=top;fontStyle=1;fillColor=#FFFFFF;strokeColor=#000000;fontColor=#000000;" parent="1" vertex="1">
            <mxGeometry x="528" y="149.55" width="55" height="65" as="geometry" />
          </mxCell>
        </object>
        <object label="26-21" placeholders="1" UID="Y.26-21.A1" id="IS0zlsRFEMftx8v_LcZY-9">
          <mxCell style="rounded=0;whiteSpace=wrap;strokeWidth=2;fontSize=14;html=1;spacing=0;spacingTop=-2;verticalAlign=top;fontStyle=1;fillColor=#FFFFFF;strokeColor=#000000;fontColor=#000000;" parent="1" vertex="1">
            <mxGeometry x="583" y="149.55" width="55" height="65" as="geometry" />
          </mxCell>
        </object>
        <object label="27-21" placeholders="1" UID="Y.27-21.A1" id="IS0zlsRFEMftx8v_LcZY-10">
          <mxCell style="rounded=0;whiteSpace=wrap;strokeWidth=2;fontSize=14;html=1;spacing=0;spacingTop=-2;verticalAlign=top;fontStyle=1;fillColor=#FFFFFF;strokeColor=#000000;fontColor=#000000;" parent="1" vertex="1">
            <mxGeometry x="638" y="149.55" width="55" height="65" as="geometry" />
          </mxCell>
        </object>
        <object label="28-21" placeholders="1" UID="Y.28-21.A1" id="IS0zlsRFEMftx8v_LcZY-11">
          <mxCell style="rounded=0;whiteSpace=wrap;strokeWidth=2;fontSize=14;html=1;spacing=0;spacingTop=-2;verticalAlign=top;fontStyle=1;fillColor=#FFFFFF;strokeColor=#000000;fontColor=#000000;" parent="1" vertex="1">
            <mxGeometry x="693" y="149.55" width="55" height="65" as="geometry" />
          </mxCell>
        </object>
        <object label="29-21" placeholders="1" UID="Y.29-21.A1" id="IS0zlsRFEMftx8v_LcZY-12">
          <mxCell style="rounded=0;whiteSpace=wrap;strokeWidth=2;fontSize=14;html=1;spacing=0;spacingTop=-2;verticalAlign=top;fontStyle=1;fillColor=#FFFFFF;strokeColor=#000000;fontColor=#000000;" parent="1" vertex="1">
            <mxGeometry x="748" y="149.55" width="55" height="65" as="geometry" />
          </mxCell>
        </object>
        <object label="30-21" placeholders="1" UID="Y.30-21.A1" id="IS0zlsRFEMftx8v_LcZY-13">
          <mxCell style="rounded=0;whiteSpace=wrap;strokeWidth=2;fontSize=14;html=1;spacing=0;spacingTop=-2;verticalAlign=top;fontStyle=1;fillColor=#FFFFFF;strokeColor=#000000;fontColor=#000000;" parent="1" vertex="1">
            <mxGeometry x="803" y="149.55" width="55" height="65" as="geometry" />
          </mxCell>
        </object>
        <object label="22-19" placeholders="1" UID="Y.22-19.A1" id="IS0zlsRFEMftx8v_LcZY-14">
          <mxCell style="rounded=0;whiteSpace=wrap;strokeWidth=2;fontSize=14;html=1;spacing=0;spacingTop=-2;verticalAlign=top;fontStyle=1;fillColor=#FFFFFF;strokeColor=#000000;fontColor=#000000;" parent="1" vertex="1">
            <mxGeometry x="363" y="249.55" width="55" height="65" as="geometry" />
          </mxCell>
        </object>
        <object label="23-19" placeholders="1" UID="Y.23-19.A1" id="IS0zlsRFEMftx8v_LcZY-15">
          <mxCell style="rounded=0;whiteSpace=wrap;strokeWidth=2;fontSize=14;html=1;spacing=0;spacingTop=-2;verticalAlign=top;fontStyle=1;fillColor=#FFFFFF;strokeColor=#000000;fontColor=#000000;" parent="1" vertex="1">
            <mxGeometry x="418" y="249.55" width="55" height="65" as="geometry" />
          </mxCell>
        </object>
        <object label="24-19" placeholders="1" UID="Y.24-19.A1" id="IS0zlsRFEMftx8v_LcZY-16">
          <mxCell style="rounded=0;whiteSpace=wrap;strokeWidth=2;fontSize=14;html=1;spacing=0;spacingTop=-2;verticalAlign=top;fontStyle=1;fillColor=#FFFFFF;strokeColor=#000000;fontColor=#000000;" parent="1" vertex="1">
            <mxGeometry x="473" y="249.55" width="55" height="65" as="geometry" />
          </mxCell>
        </object>
        <object label="25-19" placeholders="1" UID="Y.25-19.A1" id="IS0zlsRFEMftx8v_LcZY-17">
          <mxCell style="rounded=0;whiteSpace=wrap;strokeWidth=2;fontSize=14;html=1;spacing=0;spacingTop=-2;verticalAlign=top;fontStyle=1;fillColor=#FFFFFF;strokeColor=#000000;fontColor=#000000;" parent="1" vertex="1">
            <mxGeometry x="528" y="249.55" width="55" height="65" as="geometry" />
          </mxCell>
        </object>
        <object label="26-19" placeholders="1" UID="Y.26-19.A1" id="IS0zlsRFEMftx8v_LcZY-18">
          <mxCell style="rounded=0;whiteSpace=wrap;strokeWidth=2;fontSize=14;html=1;spacing=0;spacingTop=-2;verticalAlign=top;fontStyle=1;fillColor=#FFFFFF;strokeColor=#000000;fontColor=#000000;" parent="1" vertex="1">
            <mxGeometry x="583" y="249.55" width="55" height="65" as="geometry" />
          </mxCell>
        </object>
        <object label="27-19" placeholders="1" UID="Y.27-19.A1" id="IS0zlsRFEMftx8v_LcZY-19">
          <mxCell style="rounded=0;whiteSpace=wrap;strokeWidth=2;fontSize=14;html=1;spacing=0;spacingTop=-2;verticalAlign=top;fontStyle=1;fillColor=#FFFFFF;strokeColor=#000000;fontColor=#000000;" parent="1" vertex="1">
            <mxGeometry x="638" y="249.55" width="55" height="65" as="geometry" />
          </mxCell>
        </object>
        <object label="28-19" placeholders="1" UID="Y.28-19.A1" id="IS0zlsRFEMftx8v_LcZY-20">
          <mxCell style="rounded=0;whiteSpace=wrap;strokeWidth=2;fontSize=14;html=1;spacing=0;spacingTop=-2;verticalAlign=top;fontStyle=1;fillColor=#FFFFFF;strokeColor=#000000;fontColor=#000000;" parent="1" vertex="1">
            <mxGeometry x="693" y="249.55" width="55" height="65" as="geometry" />
          </mxCell>
        </object>
        <object label="29-19" placeholders="1" UID="Y.29-19.A1" id="IS0zlsRFEMftx8v_LcZY-21">
          <mxCell style="rounded=0;whiteSpace=wrap;strokeWidth=2;fontSize=14;html=1;spacing=0;spacingTop=-2;verticalAlign=top;fontStyle=1;fillColor=#FFFFFF;strokeColor=#000000;fontColor=#000000;" parent="1" vertex="1">
            <mxGeometry x="748" y="249.55" width="55" height="65" as="geometry" />
          </mxCell>
        </object>
        <object label="30-19" placeholders="1" UID="Y.30-19.A1" id="IS0zlsRFEMftx8v_LcZY-22">
          <mxCell style="rounded=0;whiteSpace=wrap;strokeWidth=2;fontSize=14;html=1;spacing=0;spacingTop=-2;verticalAlign=top;fontStyle=1;fillColor=#FFFFFF;strokeColor=#000000;fontColor=#000000;" parent="1" vertex="1">
            <mxGeometry x="803" y="249.55" width="55" height="65" as="geometry" />
          </mxCell>
        </object>
        <object label="22-16" placeholders="1" UID="Y.22-16.A1" id="IS0zlsRFEMftx8v_LcZY-23">
          <mxCell style="rounded=0;whiteSpace=wrap;strokeWidth=2;fontSize=14;html=1;spacing=0;spacingTop=-2;verticalAlign=top;fontStyle=1;fillColor=#FFFFFF;strokeColor=#000000;fontColor=#000000;" parent="1" vertex="1">
            <mxGeometry x="363" y="349.55" width="55" height="65" as="geometry" />
          </mxCell>
        </object>
        <object label="23-16" placeholders="1" UID="Y.23-16.A1" id="IS0zlsRFEMftx8v_LcZY-24">
          <mxCell style="rounded=0;whiteSpace=wrap;strokeWidth=2;fontSize=14;html=1;spacing=0;spacingTop=-2;verticalAlign=top;fontStyle=1;fillColor=#FFFFFF;strokeColor=#000000;fontColor=#000000;" parent="1" vertex="1">
            <mxGeometry x="418" y="349.55" width="55" height="65" as="geometry" />
          </mxCell>
        </object>
        <object label="24-16" placeholders="1" UID="Y.24-16.A1" id="IS0zlsRFEMftx8v_LcZY-25">
          <mxCell style="rounded=0;whiteSpace=wrap;strokeWidth=2;fontSize=14;html=1;spacing=0;spacingTop=-2;verticalAlign=top;fontStyle=1;fillColor=#FFFFFF;strokeColor=#000000;fontColor=#000000;" parent="1" vertex="1">
            <mxGeometry x="473" y="349.55" width="55" height="65" as="geometry" />
          </mxCell>
        </object>
        <object label="25-16" placeholders="1" UID="Y.25-16.A1" id="IS0zlsRFEMftx8v_LcZY-26">
          <mxCell style="rounded=0;whiteSpace=wrap;strokeWidth=2;fontSize=14;html=1;spacing=0;spacingTop=-2;verticalAlign=top;fontStyle=1;fillColor=#FFFFFF;strokeColor=#000000;fontColor=#000000;" parent="1" vertex="1">
            <mxGeometry x="528" y="349.55" width="55" height="65" as="geometry" />
          </mxCell>
        </object>
        <object label="26-16" placeholders="1" UID="Y.26-16.A1" id="IS0zlsRFEMftx8v_LcZY-27">
          <mxCell style="rounded=0;whiteSpace=wrap;strokeWidth=2;fontSize=14;html=1;spacing=0;spacingTop=-2;verticalAlign=top;fontStyle=1;fillColor=#FFFFFF;strokeColor=#000000;fontColor=#000000;" parent="1" vertex="1">
            <mxGeometry x="583" y="349.55" width="55" height="65" as="geometry" />
          </mxCell>
        </object>
        <object label="27-16" placeholders="1" UID="Y.27-16.A1" id="IS0zlsRFEMftx8v_LcZY-28">
          <mxCell style="rounded=0;whiteSpace=wrap;strokeWidth=2;fontSize=14;html=1;spacing=0;spacingTop=-2;verticalAlign=top;fontStyle=1;fillColor=#FFFFFF;strokeColor=#000000;fontColor=#000000;" parent="1" vertex="1">
            <mxGeometry x="638" y="349.55" width="55" height="65" as="geometry" />
          </mxCell>
        </object>
        <object label="28-16" placeholders="1" UID="Y.28-16.A1" id="IS0zlsRFEMftx8v_LcZY-29">
          <mxCell style="rounded=0;whiteSpace=wrap;strokeWidth=2;fontSize=14;html=1;spacing=0;spacingTop=-2;verticalAlign=top;fontStyle=1;fillColor=#FFFFFF;strokeColor=#000000;fontColor=#000000;" parent="1" vertex="1">
            <mxGeometry x="693" y="349.55" width="55" height="65" as="geometry" />
          </mxCell>
        </object>
        <object label="29-16" placeholders="1" UID="Y.29-16.A1" id="IS0zlsRFEMftx8v_LcZY-30">
          <mxCell style="rounded=0;whiteSpace=wrap;strokeWidth=2;fontSize=14;html=1;spacing=0;spacingTop=-2;verticalAlign=top;fontStyle=1;fillColor=#FFFFFF;strokeColor=#000000;fontColor=#000000;" parent="1" vertex="1">
            <mxGeometry x="748" y="349.55" width="55" height="65" as="geometry" />
          </mxCell>
        </object>
        <object label="22-14" placeholders="1" UID="Y.22-14.A1" id="IS0zlsRFEMftx8v_LcZY-32">
          <mxCell style="rounded=0;whiteSpace=wrap;strokeWidth=2;fontSize=14;html=1;spacing=0;spacingTop=-2;verticalAlign=top;fontStyle=1;fillColor=#FFFFFF;strokeColor=#000000;fontColor=#000000;" parent="1" vertex="1">
            <mxGeometry x="363" y="448.55" width="55" height="65" as="geometry" />
          </mxCell>
        </object>
        <object label="23-14" placeholders="1" UID="Y.23-14.A1" id="IS0zlsRFEMftx8v_LcZY-33">
          <mxCell style="rounded=0;whiteSpace=wrap;strokeWidth=2;fontSize=14;html=1;spacing=0;spacingTop=-2;verticalAlign=top;fontStyle=1;fillColor=#FFFFFF;strokeColor=#000000;fontColor=#000000;" parent="1" vertex="1">
            <mxGeometry x="418" y="448.55" width="55" height="65" as="geometry" />
          </mxCell>
        </object>
        <object label="24-14" placeholders="1" UID="Y.24-14.A1" id="IS0zlsRFEMftx8v_LcZY-34">
          <mxCell style="rounded=0;whiteSpace=wrap;strokeWidth=2;fontSize=14;html=1;spacing=0;spacingTop=-2;verticalAlign=top;fontStyle=1;fillColor=#FFFFFF;strokeColor=#000000;fontColor=#000000;" parent="1" vertex="1">
            <mxGeometry x="473" y="448.55" width="55" height="65" as="geometry" />
          </mxCell>
        </object>
        <object label="25-14" placeholders="1" UID="Y.25-14.A1" id="IS0zlsRFEMftx8v_LcZY-35">
          <mxCell style="rounded=0;whiteSpace=wrap;strokeWidth=2;fontSize=14;html=1;spacing=0;spacingTop=-2;verticalAlign=top;fontStyle=1;fillColor=#FFFFFF;strokeColor=#000000;fontColor=#000000;" parent="1" vertex="1">
            <mxGeometry x="528" y="448.55" width="55" height="65" as="geometry" />
          </mxCell>
        </object>
        <object label="26-14" placeholders="1" UID="Y.26-14.A1" id="IS0zlsRFEMftx8v_LcZY-36">
          <mxCell style="rounded=0;whiteSpace=wrap;strokeWidth=2;fontSize=14;html=1;spacing=0;spacingTop=-2;verticalAlign=top;fontStyle=1;fillColor=#FFFFFF;strokeColor=#000000;fontColor=#000000;" parent="1" vertex="1">
            <mxGeometry x="583" y="448.55" width="55" height="65" as="geometry" />
          </mxCell>
        </object>
        <object label="27-14" placeholders="1" UID="Y.27-14.A1" id="IS0zlsRFEMftx8v_LcZY-37">
          <mxCell style="rounded=0;whiteSpace=wrap;strokeWidth=2;fontSize=14;html=1;spacing=0;spacingTop=-2;verticalAlign=top;fontStyle=1;fillColor=#FFFFFF;strokeColor=#000000;fontColor=#000000;" parent="1" vertex="1">
            <mxGeometry x="638" y="448.55" width="55" height="65" as="geometry" />
          </mxCell>
        </object>
        <object label="28-14" placeholders="1" UID="Y.28-14.A1" id="IS0zlsRFEMftx8v_LcZY-38">
          <mxCell style="rounded=0;whiteSpace=wrap;strokeWidth=2;fontSize=14;html=1;spacing=0;spacingTop=-2;verticalAlign=top;fontStyle=1;fillColor=#FFFFFF;strokeColor=#000000;fontColor=#000000;" parent="1" vertex="1">
            <mxGeometry x="693" y="448.55" width="55" height="65" as="geometry" />
          </mxCell>
        </object>
        <object label="29-14" placeholders="1" UID="Y.29-14.A1" id="IS0zlsRFEMftx8v_LcZY-39">
          <mxCell style="rounded=0;whiteSpace=wrap;strokeWidth=2;fontSize=14;html=1;spacing=0;spacingTop=-2;verticalAlign=top;fontStyle=1;fillColor=#FFFFFF;strokeColor=#000000;fontColor=#000000;" parent="1" vertex="1">
            <mxGeometry x="748" y="448.55" width="55" height="65" as="geometry" />
          </mxCell>
        </object>
        <object label="30-14" placeholders="1" UID="Y.30-14.A1" id="IS0zlsRFEMftx8v_LcZY-40">
          <mxCell style="rounded=0;whiteSpace=wrap;strokeWidth=2;fontSize=14;html=1;spacing=0;spacingTop=-2;verticalAlign=top;fontStyle=1;fillColor=#FFFFFF;strokeColor=#000000;fontColor=#000000;" parent="1" vertex="1">
            <mxGeometry x="803" y="448.55" width="55" height="65" as="geometry" />
          </mxCell>
        </object>
        <object label="EXD1/15A" placeholders="1" UID="EXD1_15A" id="IS0zlsRFEMftx8v_LcZY-44">
          <mxCell style="rounded=0;whiteSpace=wrap;strokeWidth=2;fillColor=#2F39AE;fontSize=12;html=1;spacing=0;spacingTop=-2;verticalAlign=top;fontColor=#FFFFFF;fontStyle=1;strokeColor=#000000;" parent="1" vertex="1">
            <mxGeometry x="232" y="48.05" width="96" height="46" as="geometry" />
          </mxCell>
        </object>
        <object label="EOD2/15A" placeholders="1" UID="EOD2_15A" id="IS0zlsRFEMftx8v_LcZY-47">
          <mxCell style="rounded=0;whiteSpace=wrap;strokeWidth=2;fillColor=#2F39AE;fontSize=12;html=1;spacing=0;spacingTop=-2;verticalAlign=top;fontColor=#FFFFFF;fontStyle=1;strokeColor=#FA8042;" parent="1" vertex="1">
            <mxGeometry x="-17" y="48.05" width="96" height="46" as="geometry" />
          </mxCell>
        </object>
        <object label="22-11" placeholders="1" UID="Y.22-11.A1" id="IS0zlsRFEMftx8v_LcZY-129">
          <mxCell style="rounded=0;whiteSpace=wrap;strokeWidth=2;fontSize=14;html=1;spacing=0;spacingTop=-2;verticalAlign=top;fontStyle=1;fillColor=#FFFFFF;strokeColor=#000000;fontColor=#000000;" parent="1" vertex="1">
            <mxGeometry x="363" y="549.05" width="55" height="65" as="geometry" />
          </mxCell>
        </object>
        <object label="23-11" placeholders="1" UID="Y.23-11.A1" id="IS0zlsRFEMftx8v_LcZY-130">
          <mxCell style="rounded=0;whiteSpace=wrap;strokeWidth=2;fontSize=14;html=1;spacing=0;spacingTop=-2;verticalAlign=top;fontStyle=1;fillColor=#FFFFFF;strokeColor=#000000;fontColor=#000000;" parent="1" vertex="1">
            <mxGeometry x="418" y="549.05" width="55" height="65" as="geometry" />
          </mxCell>
        </object>
        <object label="24-11" placeholders="1" UID="Y.24-11.A1" id="IS0zlsRFEMftx8v_LcZY-131">
          <mxCell style="rounded=0;whiteSpace=wrap;strokeWidth=2;fontSize=14;html=1;spacing=0;spacingTop=-2;verticalAlign=top;fontStyle=1;fillColor=#FFFFFF;strokeColor=#000000;fontColor=#000000;" parent="1" vertex="1">
            <mxGeometry x="473" y="549.05" width="55" height="65" as="geometry" />
          </mxCell>
        </object>
        <object label="25-11" placeholders="1" UID="Y.25-11.A1" id="IS0zlsRFEMftx8v_LcZY-132">
          <mxCell style="rounded=0;whiteSpace=wrap;strokeWidth=2;fontSize=14;html=1;spacing=0;spacingTop=-2;verticalAlign=top;fontStyle=1;fillColor=#FFFFFF;strokeColor=#000000;fontColor=#000000;" parent="1" vertex="1">
            <mxGeometry x="528" y="549.05" width="55" height="65" as="geometry" />
          </mxCell>
        </object>
        <object label="26-11" placeholders="1" UID="Y.26-11.A1" id="IS0zlsRFEMftx8v_LcZY-133">
          <mxCell style="rounded=0;whiteSpace=wrap;strokeWidth=2;fontSize=14;html=1;spacing=0;spacingTop=-2;verticalAlign=top;fontStyle=1;fillColor=#FFFFFF;strokeColor=#000000;fontColor=#000000;" parent="1" vertex="1">
            <mxGeometry x="583" y="549.05" width="55" height="65" as="geometry" />
          </mxCell>
        </object>
        <object label="27-11" placeholders="1" UID="Y.27-11.A1" id="IS0zlsRFEMftx8v_LcZY-134">
          <mxCell style="rounded=0;whiteSpace=wrap;strokeWidth=2;fontSize=14;html=1;spacing=0;spacingTop=-2;verticalAlign=top;fontStyle=1;fillColor=#FFFFFF;strokeColor=#000000;fontColor=#000000;" parent="1" vertex="1">
            <mxGeometry x="638" y="549.05" width="55" height="65" as="geometry" />
          </mxCell>
        </object>
        <object label="28-11" placeholders="1" UID="Y.28-11.A1" id="IS0zlsRFEMftx8v_LcZY-135">
          <mxCell style="rounded=0;whiteSpace=wrap;strokeWidth=2;fontSize=14;html=1;spacing=0;spacingTop=-2;verticalAlign=top;fontStyle=1;fillColor=#FFFFFF;strokeColor=#000000;fontColor=#000000;" parent="1" vertex="1">
            <mxGeometry x="693" y="549.05" width="55" height="65" as="geometry" />
          </mxCell>
        </object>
        <object label="29-11" placeholders="1" UID="Y.29-11.A1" id="IS0zlsRFEMftx8v_LcZY-136">
          <mxCell style="rounded=0;whiteSpace=wrap;strokeWidth=2;fontSize=14;html=1;spacing=0;spacingTop=-2;verticalAlign=top;fontStyle=1;fillColor=#FFFFFF;strokeColor=#000000;fontColor=#000000;" parent="1" vertex="1">
            <mxGeometry x="748" y="549.05" width="55" height="65" as="geometry" />
          </mxCell>
        </object>
        <object label="30-11" placeholders="1" UID="Y.30-11.A1" id="IS0zlsRFEMftx8v_LcZY-137">
          <mxCell style="rounded=0;whiteSpace=wrap;strokeWidth=2;fontSize=14;html=1;spacing=0;spacingTop=-2;verticalAlign=top;fontStyle=1;fillColor=#FFFFFF;strokeColor=#000000;fontColor=#000000;" parent="1" vertex="1">
            <mxGeometry x="803" y="549.05" width="55" height="65" as="geometry" />
          </mxCell>
        </object>
        <object label="22-07" placeholders="1" UID="Y.22-07.A1" id="IS0zlsRFEMftx8v_LcZY-150">
          <mxCell style="rounded=0;whiteSpace=wrap;strokeWidth=2;fontSize=14;html=1;spacing=0;spacingTop=-2;verticalAlign=top;fontStyle=1;fillColor=#FFFFFF;strokeColor=#000000;fontColor=#000000;" parent="1" vertex="1">
            <mxGeometry x="363" y="649.05" width="55" height="65" as="geometry" />
          </mxCell>
        </object>
        <object label="23-07" placeholders="1" UID="Y.23-07.A1" id="IS0zlsRFEMftx8v_LcZY-151">
          <mxCell style="rounded=0;whiteSpace=wrap;strokeWidth=2;fontSize=14;html=1;spacing=0;spacingTop=-2;verticalAlign=top;fontStyle=1;fillColor=#FFFFFF;strokeColor=#000000;fontColor=#000000;" parent="1" vertex="1">
            <mxGeometry x="418" y="649.05" width="55" height="65" as="geometry" />
          </mxCell>
        </object>
        <object label="22-05" placeholders="1" UID="Y.22-05.A1" id="IS0zlsRFEMftx8v_LcZY-155">
          <mxCell style="rounded=0;whiteSpace=wrap;strokeWidth=2;fontSize=14;html=1;spacing=0;spacingTop=-2;verticalAlign=top;fontStyle=1;fillColor=#FFFFFF;strokeColor=#000000;fontColor=#000000;" parent="1" vertex="1">
            <mxGeometry x="363" y="749.05" width="55" height="65" as="geometry" />
          </mxCell>
        </object>
        <object label="23-05" placeholders="1" UID="Y.23-05.A1" id="IS0zlsRFEMftx8v_LcZY-156">
          <mxCell style="rounded=0;whiteSpace=wrap;strokeWidth=2;fontSize=14;html=1;spacing=0;spacingTop=-2;verticalAlign=top;fontStyle=1;fillColor=#FFFFFF;strokeColor=#000000;fontColor=#000000;" parent="1" vertex="1">
            <mxGeometry x="418" y="749.05" width="55" height="65" as="geometry" />
          </mxCell>
        </object>
        <object label="24-05" placeholders="1" UID="Y.24-05.A1" id="IS0zlsRFEMftx8v_LcZY-157">
          <mxCell style="rounded=0;whiteSpace=wrap;strokeWidth=2;fontSize=14;html=1;spacing=0;spacingTop=-2;verticalAlign=top;fontStyle=1;fillColor=#FFFFFF;strokeColor=#000000;fontColor=#000000;" parent="1" vertex="1">
            <mxGeometry x="473" y="749.05" width="55" height="65" as="geometry" />
          </mxCell>
        </object>
        <object label="25-05" placeholders="1" UID="Y.25-05.A1" id="IS0zlsRFEMftx8v_LcZY-158">
          <mxCell style="rounded=0;whiteSpace=wrap;strokeWidth=2;fontSize=14;html=1;spacing=0;spacingTop=-2;verticalAlign=top;fontStyle=1;fillColor=#FFFFFF;strokeColor=#000000;fontColor=#000000;" parent="1" vertex="1">
            <mxGeometry x="528" y="749.05" width="55" height="65" as="geometry" />
          </mxCell>
        </object>
        <object label="26-05" placeholders="1" UID="Y.26-05.A1" id="IS0zlsRFEMftx8v_LcZY-159">
          <mxCell style="rounded=0;whiteSpace=wrap;strokeWidth=2;fontSize=14;html=1;spacing=0;spacingTop=-2;verticalAlign=top;fontStyle=1;fillColor=#FFFFFF;strokeColor=#000000;fontColor=#000000;" parent="1" vertex="1">
            <mxGeometry x="583" y="749.05" width="55" height="65" as="geometry" />
          </mxCell>
        </object>
        <object label="27-05" placeholders="1" UID="Y.27-05.A1" id="IS0zlsRFEMftx8v_LcZY-160">
          <mxCell style="rounded=0;whiteSpace=wrap;strokeWidth=2;fontSize=14;html=1;spacing=0;spacingTop=-2;verticalAlign=top;fontStyle=1;fillColor=#FFFFFF;strokeColor=#000000;fontColor=#000000;" parent="1" vertex="1">
            <mxGeometry x="638" y="749.05" width="55" height="65" as="geometry" />
          </mxCell>
        </object>
        <object label="28-05" placeholders="1" UID="Y.28-05.A1" id="IS0zlsRFEMftx8v_LcZY-161">
          <mxCell style="rounded=0;whiteSpace=wrap;strokeWidth=2;fontSize=14;html=1;spacing=0;spacingTop=-2;verticalAlign=top;fontStyle=1;fillColor=#FFFFFF;strokeColor=#000000;fontColor=#000000;" parent="1" vertex="1">
            <mxGeometry x="693" y="749.05" width="55" height="65" as="geometry" />
          </mxCell>
        </object>
        <object label="29-05" placeholders="1" UID="Y.29-05.A1" id="IS0zlsRFEMftx8v_LcZY-162">
          <mxCell style="rounded=0;whiteSpace=wrap;strokeWidth=2;fontSize=14;html=1;spacing=0;spacingTop=-2;verticalAlign=top;fontStyle=1;fillColor=#FFFFFF;strokeColor=#000000;fontColor=#000000;" parent="1" vertex="1">
            <mxGeometry x="748" y="749.05" width="55" height="65" as="geometry" />
          </mxCell>
        </object>
        <object label="30-05" placeholders="1" UID="Y.30-05.A1" id="IS0zlsRFEMftx8v_LcZY-163">
          <mxCell style="rounded=0;whiteSpace=wrap;strokeWidth=2;fontSize=14;html=1;spacing=0;spacingTop=-2;verticalAlign=top;fontStyle=1;fillColor=#FFFFFF;strokeColor=#000000;fontColor=#000000;" parent="1" vertex="1">
            <mxGeometry x="803" y="749.05" width="55" height="65" as="geometry" />
          </mxCell>
        </object>
        <object label="22-02" placeholders="1" UID="Y.22-02.A1" id="IS0zlsRFEMftx8v_LcZY-184">
          <mxCell style="rounded=0;whiteSpace=wrap;strokeWidth=2;fontSize=14;html=1;spacing=0;spacingTop=-2;verticalAlign=top;fontStyle=1;fillColor=#FFFFFF;strokeColor=#000000;fontColor=#000000;" parent="1" vertex="1">
            <mxGeometry x="363" y="849.05" width="55" height="65" as="geometry" />
          </mxCell>
        </object>
        <object label="23-02" placeholders="1" UID="Y.23-02.A1" id="IS0zlsRFEMftx8v_LcZY-185">
          <mxCell style="rounded=0;whiteSpace=wrap;strokeWidth=2;fontSize=14;html=1;spacing=0;spacingTop=-2;verticalAlign=top;fontStyle=1;fillColor=#FFFFFF;strokeColor=#000000;fontColor=#000000;" parent="1" vertex="1">
            <mxGeometry x="418" y="849.05" width="55" height="65" as="geometry" />
          </mxCell>
        </object>
        <object label="24-02" placeholders="1" UID="Y.24-02.A1" id="IS0zlsRFEMftx8v_LcZY-186">
          <mxCell style="rounded=0;whiteSpace=wrap;strokeWidth=2;fontSize=14;html=1;spacing=0;spacingTop=-2;verticalAlign=top;fontStyle=1;fillColor=#FFFFFF;strokeColor=#000000;fontColor=#000000;" parent="1" vertex="1">
            <mxGeometry x="473" y="849.05" width="55" height="65" as="geometry" />
          </mxCell>
        </object>
        <object label="25-02" placeholders="1" UID="Y.25-02.A1" id="IS0zlsRFEMftx8v_LcZY-187">
          <mxCell style="rounded=0;whiteSpace=wrap;strokeWidth=2;fontSize=14;html=1;spacing=0;spacingTop=-2;verticalAlign=top;fontStyle=1;fillColor=#FFFFFF;strokeColor=#000000;fontColor=#000000;" parent="1" vertex="1">
            <mxGeometry x="528" y="849.05" width="55" height="65" as="geometry" />
          </mxCell>
        </object>
        <object label="26-02" placeholders="1" UID="Y.26-02.A1" id="IS0zlsRFEMftx8v_LcZY-188">
          <mxCell style="rounded=0;whiteSpace=wrap;strokeWidth=2;fontSize=14;html=1;spacing=0;spacingTop=-2;verticalAlign=top;fontStyle=1;fillColor=#FFFFFF;strokeColor=#000000;fontColor=#000000;" parent="1" vertex="1">
            <mxGeometry x="583" y="849.05" width="55" height="65" as="geometry" />
          </mxCell>
        </object>
        <object label="27-02" placeholders="1" UID="Y.27-02.A1" id="IS0zlsRFEMftx8v_LcZY-189">
          <mxCell style="rounded=0;whiteSpace=wrap;strokeWidth=2;fontSize=14;html=1;spacing=0;spacingTop=-2;verticalAlign=top;fontStyle=1;fillColor=#FFFFFF;strokeColor=#000000;fontColor=#000000;" parent="1" vertex="1">
            <mxGeometry x="638" y="849.05" width="55" height="65" as="geometry" />
          </mxCell>
        </object>
        <object label="28-02" placeholders="1" UID="Y.28-02.A1" id="IS0zlsRFEMftx8v_LcZY-190">
          <mxCell style="rounded=0;whiteSpace=wrap;strokeWidth=2;fontSize=14;html=1;spacing=0;spacingTop=-2;verticalAlign=top;fontStyle=1;fillColor=#FFFFFF;strokeColor=#000000;fontColor=#000000;" parent="1" vertex="1">
            <mxGeometry x="693" y="849.05" width="55" height="65" as="geometry" />
          </mxCell>
        </object>
        <object label="29-02" placeholders="1" UID="Y.29-02.A1" id="IS0zlsRFEMftx8v_LcZY-191">
          <mxCell style="rounded=0;whiteSpace=wrap;strokeWidth=2;fontSize=14;html=1;spacing=0;spacingTop=-2;verticalAlign=top;fontStyle=1;fillColor=#FFFFFF;strokeColor=#000000;fontColor=#000000;" parent="1" vertex="1">
            <mxGeometry x="748" y="849.05" width="55" height="65" as="geometry" />
          </mxCell>
        </object>
        <object label="30-02" placeholders="1" UID="Y.30-02.A1" id="IS0zlsRFEMftx8v_LcZY-192">
          <mxCell style="rounded=0;whiteSpace=wrap;strokeWidth=2;fontSize=14;html=1;spacing=0;spacingTop=-2;verticalAlign=top;fontStyle=1;fillColor=#FFFFFF;strokeColor=#000000;fontColor=#000000;" parent="1" vertex="1">
            <mxGeometry x="803" y="849.05" width="55" height="65" as="geometry" />
          </mxCell>
        </object>
        <object label="20-02" placeholders="1" UID="Y.20-02.A1" id="IS0zlsRFEMftx8v_LcZY-193">
          <mxCell style="rounded=0;whiteSpace=wrap;strokeWidth=2;fontSize=14;html=1;spacing=0;spacingTop=-2;verticalAlign=top;fontStyle=1;fillColor=#FFFFFF;strokeColor=#000000;fontColor=#000000;" parent="1" vertex="1">
            <mxGeometry x="253" y="849.05" width="55" height="65" as="geometry" />
          </mxCell>
        </object>
        <object label="21-02" placeholders="1" UID="Y.21-02.A1" id="IS0zlsRFEMftx8v_LcZY-194">
          <mxCell style="rounded=0;whiteSpace=wrap;strokeWidth=2;fontSize=14;html=1;spacing=0;spacingTop=-2;verticalAlign=top;fontStyle=1;fillColor=#FFFFFF;strokeColor=#000000;fontColor=#000000;" parent="1" vertex="1">
            <mxGeometry x="308" y="849.05" width="55" height="65" as="geometry" />
          </mxCell>
        </object>
        <mxCell id="IS0zlsRFEMftx8v_LcZY-200" value="" style="endArrow=block;html=1;rounded=0;strokeWidth=2;endFill=1;strokeColor=#000000;entryX=0.5;entryY=0;entryDx=0;entryDy=0;exitDx=0;exitDy=0;startArrow=none;" parent="1" source="7mU7ba0v8RgfDHqllulz-9" target="IS0zlsRFEMftx8v_LcZY-193" edge="1">
          <mxGeometry width="50" height="50" relative="1" as="geometry">
            <mxPoint x="330" y="144.04999999999978" as="sourcePoint" />
            <mxPoint x="345.5" y="884.05" as="targetPoint" />
          </mxGeometry>
        </mxCell>
        <object label="09-02" placeholders="1" UID="Y.09-02.A1" id="IS0zlsRFEMftx8v_LcZY-207">
          <mxCell style="rounded=0;whiteSpace=wrap;strokeWidth=2;fontSize=14;html=1;spacing=0;spacingTop=-2;verticalAlign=top;fontStyle=1;fillColor=#FFFFFF;strokeColor=#000000;fontColor=#000000;" parent="1" vertex="1">
            <mxGeometry x="-352" y="849.249951171875" width="55" height="65" as="geometry" />
          </mxCell>
        </object>
        <object label="10-02" placeholders="1" UID="Y.10-02.A1" id="IS0zlsRFEMftx8v_LcZY-208">
          <mxCell style="rounded=0;whiteSpace=wrap;strokeWidth=2;fontSize=14;html=1;spacing=0;spacingTop=-2;verticalAlign=top;fontStyle=1;fillColor=#FFFFFF;strokeColor=#000000;fontColor=#000000;" parent="1" vertex="1">
            <mxGeometry x="-297" y="849.249951171875" width="55" height="65" as="geometry" />
          </mxCell>
        </object>
        <object label="11-02" placeholders="1" UID="Y.11-02.A1" id="IS0zlsRFEMftx8v_LcZY-209">
          <mxCell style="rounded=0;whiteSpace=wrap;strokeWidth=2;fontSize=14;html=1;spacing=0;spacingTop=-2;verticalAlign=top;fontStyle=1;fillColor=#FFFFFF;strokeColor=#000000;fontColor=#000000;" parent="1" vertex="1">
            <mxGeometry x="-242" y="849.249951171875" width="55" height="65" as="geometry" />
          </mxCell>
        </object>
        <object label="12-02" placeholders="1" UID="Y.12-02.A1" id="IS0zlsRFEMftx8v_LcZY-210">
          <mxCell style="rounded=0;whiteSpace=wrap;strokeWidth=2;fontSize=14;html=1;spacing=0;spacingTop=-2;verticalAlign=top;fontStyle=1;fillColor=#FFFFFF;strokeColor=#000000;fontColor=#000000;" parent="1" vertex="1">
            <mxGeometry x="-187" y="849.249951171875" width="55" height="65" as="geometry" />
          </mxCell>
        </object>
        <object label="13-02" placeholders="1" UID="Y.13-02.A1" id="IS0zlsRFEMftx8v_LcZY-211">
          <mxCell style="rounded=0;whiteSpace=wrap;strokeWidth=2;fontSize=14;html=1;spacing=0;spacingTop=-2;verticalAlign=top;fontStyle=1;fillColor=#FFFFFF;strokeColor=#000000;fontColor=#000000;" parent="1" vertex="1">
            <mxGeometry x="-132" y="849.249951171875" width="55" height="65" as="geometry" />
          </mxCell>
        </object>
        <object label="14-02" placeholders="1" UID="Y.14-02.A1" id="IS0zlsRFEMftx8v_LcZY-212">
          <mxCell style="rounded=0;whiteSpace=wrap;strokeWidth=2;fontSize=14;html=1;spacing=0;spacingTop=-2;verticalAlign=top;fontStyle=1;fillColor=#FFFFFF;strokeColor=#000000;fontColor=#000000;" parent="1" vertex="1">
            <mxGeometry x="-77" y="849.249951171875" width="55" height="65" as="geometry" />
          </mxCell>
        </object>
        <object label="15-02" placeholders="1" UID="Y.15-02.A1" id="IS0zlsRFEMftx8v_LcZY-213">
          <mxCell style="rounded=0;whiteSpace=wrap;strokeWidth=2;fontSize=14;html=1;spacing=0;spacingTop=-2;verticalAlign=top;fontStyle=1;fillColor=#FFFFFF;strokeColor=#000000;fontColor=#000000;" parent="1" vertex="1">
            <mxGeometry x="-22" y="849.249951171875" width="55" height="65" as="geometry" />
          </mxCell>
        </object>
        <object label="02-02" placeholders="1" UID="Y.02-02.A1" id="IS0zlsRFEMftx8v_LcZY-222">
          <mxCell style="rounded=0;whiteSpace=wrap;strokeWidth=2;fontSize=14;html=1;spacing=0;spacingTop=-2;verticalAlign=top;fontStyle=1;fillColor=#FFFFFF;strokeColor=#000000;fontColor=#000000;" parent="1" vertex="1">
            <mxGeometry x="-737" y="849.249951171875" width="55" height="65" as="geometry" />
          </mxCell>
        </object>
        <object label="03-02" placeholders="1" UID="Y.03-02.A1" id="IS0zlsRFEMftx8v_LcZY-223">
          <mxCell style="rounded=0;whiteSpace=wrap;strokeWidth=2;fontSize=14;html=1;spacing=0;spacingTop=-2;verticalAlign=top;fontStyle=1;fillColor=#FFFFFF;strokeColor=#000000;fontColor=#000000;" parent="1" vertex="1">
            <mxGeometry x="-682" y="849.249951171875" width="55" height="65" as="geometry" />
          </mxCell>
        </object>
        <object label="04-02" placeholders="1" UID="Y.04-02.A1" id="IS0zlsRFEMftx8v_LcZY-224">
          <mxCell style="rounded=0;whiteSpace=wrap;strokeWidth=2;fontSize=14;html=1;spacing=0;spacingTop=-2;verticalAlign=top;fontStyle=1;fillColor=#FFFFFF;strokeColor=#000000;fontColor=#000000;" parent="1" vertex="1">
            <mxGeometry x="-627" y="849.249951171875" width="55" height="65" as="geometry" />
          </mxCell>
        </object>
        <object label="05-02" placeholders="1" UID="Y.05-02.A1" id="IS0zlsRFEMftx8v_LcZY-225">
          <mxCell style="rounded=0;whiteSpace=wrap;strokeWidth=2;fontSize=14;html=1;spacing=0;spacingTop=-2;verticalAlign=top;fontStyle=1;fillColor=#FFFFFF;strokeColor=#000000;fontColor=#000000;" parent="1" vertex="1">
            <mxGeometry x="-572" y="849.249951171875" width="55" height="65" as="geometry" />
          </mxCell>
        </object>
        <object label="06-02" placeholders="1" UID="Y.06-02.A1" id="IS0zlsRFEMftx8v_LcZY-226">
          <mxCell style="rounded=0;whiteSpace=wrap;strokeWidth=2;fontSize=14;html=1;spacing=0;spacingTop=-2;verticalAlign=top;fontStyle=1;fillColor=#FFFFFF;strokeColor=#000000;fontColor=#000000;" parent="1" vertex="1">
            <mxGeometry x="-517" y="849.249951171875" width="55" height="65" as="geometry" />
          </mxCell>
        </object>
        <object label="07-02" placeholders="1" UID="Y.07-02.A1" id="IS0zlsRFEMftx8v_LcZY-227">
          <mxCell style="rounded=0;whiteSpace=wrap;strokeWidth=2;fontSize=14;html=1;spacing=0;spacingTop=-2;verticalAlign=top;fontStyle=1;fillColor=#FFFFFF;strokeColor=#000000;fontColor=#000000;" parent="1" vertex="1">
            <mxGeometry x="-462" y="849.249951171875" width="55" height="65" as="geometry" />
          </mxCell>
        </object>
        <object label="08-02" placeholders="1" UID="Y.08-02.A1" id="IS0zlsRFEMftx8v_LcZY-228">
          <mxCell style="rounded=0;whiteSpace=wrap;strokeWidth=2;fontSize=14;html=1;spacing=0;spacingTop=-2;verticalAlign=top;fontStyle=1;fillColor=#FFFFFF;strokeColor=#000000;fontColor=#000000;" parent="1" vertex="1">
            <mxGeometry x="-407" y="849.249951171875" width="55" height="65" as="geometry" />
          </mxCell>
        </object>
        <object label="02-05" placeholders="1" UID="Y.02-05.A1" id="IS0zlsRFEMftx8v_LcZY-235">
          <mxCell style="rounded=0;whiteSpace=wrap;strokeWidth=2;fontSize=14;html=1;spacing=0;spacingTop=-2;verticalAlign=top;fontStyle=1;fillColor=#FFFFFF;strokeColor=#000000;fontColor=#000000;" parent="1" vertex="1">
            <mxGeometry x="-736" y="749.249951171875" width="55" height="65" as="geometry" />
          </mxCell>
        </object>
        <object label="03-05" placeholders="1" UID="Y.03-05.A1" id="IS0zlsRFEMftx8v_LcZY-236">
          <mxCell style="rounded=0;whiteSpace=wrap;strokeWidth=2;fontSize=14;html=1;spacing=0;spacingTop=-2;verticalAlign=top;fontStyle=1;fillColor=#FFFFFF;strokeColor=#000000;fontColor=#000000;" parent="1" vertex="1">
            <mxGeometry x="-681" y="749.249951171875" width="55" height="65" as="geometry" />
          </mxCell>
        </object>
        <object label="04-05" placeholders="1" UID="Y.04-05.A1" id="IS0zlsRFEMftx8v_LcZY-237">
          <mxCell style="rounded=0;whiteSpace=wrap;strokeWidth=2;fontSize=14;html=1;spacing=0;spacingTop=-2;verticalAlign=top;fontStyle=1;fillColor=#FFFFFF;strokeColor=#000000;fontColor=#000000;" parent="1" vertex="1">
            <mxGeometry x="-626" y="749.249951171875" width="55" height="65" as="geometry" />
          </mxCell>
        </object>
        <object label="05-05" placeholders="1" UID="Y.05-05.A1" id="IS0zlsRFEMftx8v_LcZY-238">
          <mxCell style="rounded=0;whiteSpace=wrap;strokeWidth=2;fontSize=14;html=1;spacing=0;spacingTop=-2;verticalAlign=top;fontStyle=1;fillColor=#FFFFFF;strokeColor=#000000;fontColor=#000000;" parent="1" vertex="1">
            <mxGeometry x="-571" y="749.249951171875" width="55" height="65" as="geometry" />
          </mxCell>
        </object>
        <object label="06-05" placeholders="1" UID="Y.06-05.A1" id="IS0zlsRFEMftx8v_LcZY-239">
          <mxCell style="rounded=0;whiteSpace=wrap;strokeWidth=2;fontSize=14;html=1;spacing=0;spacingTop=-2;verticalAlign=top;fontStyle=1;fillColor=#FFFFFF;strokeColor=#000000;fontColor=#000000;" parent="1" vertex="1">
            <mxGeometry x="-516" y="749.249951171875" width="55" height="65" as="geometry" />
          </mxCell>
        </object>
        <object label="03-11" placeholders="1" UID="Y.03-11.A1" id="IS0zlsRFEMftx8v_LcZY-251">
          <mxCell style="rounded=0;whiteSpace=wrap;strokeWidth=2;fontSize=14;html=1;spacing=0;spacingTop=-2;verticalAlign=top;fontStyle=1;fillColor=#FFFFFF;strokeColor=#000000;fontColor=#000000;" parent="1" vertex="1">
            <mxGeometry x="-682" y="549.249951171875" width="55" height="65" as="geometry" />
          </mxCell>
        </object>
        <object label="04-11" placeholders="1" UID="Y.04-11.A1" id="IS0zlsRFEMftx8v_LcZY-252">
          <mxCell style="rounded=0;whiteSpace=wrap;strokeWidth=2;fontSize=14;html=1;spacing=0;spacingTop=-2;verticalAlign=top;fontStyle=1;fillColor=#FFFFFF;strokeColor=#000000;fontColor=#000000;" parent="1" vertex="1">
            <mxGeometry x="-627" y="549.249951171875" width="55" height="65" as="geometry" />
          </mxCell>
        </object>
        <object label="05-11" placeholders="1" UID="Y.05-11.A1" id="IS0zlsRFEMftx8v_LcZY-253">
          <mxCell style="rounded=0;whiteSpace=wrap;strokeWidth=2;fontSize=14;html=1;spacing=0;spacingTop=-2;verticalAlign=top;fontStyle=1;fillColor=#FFFFFF;strokeColor=#000000;fontColor=#000000;" parent="1" vertex="1">
            <mxGeometry x="-572" y="549.249951171875" width="55" height="65" as="geometry" />
          </mxCell>
        </object>
        <object label="06-11" placeholders="1" UID="Y.06-11.A1" id="IS0zlsRFEMftx8v_LcZY-254">
          <mxCell style="rounded=0;whiteSpace=wrap;strokeWidth=2;fontSize=14;html=1;spacing=0;spacingTop=-2;verticalAlign=top;fontStyle=1;fillColor=#FFFFFF;strokeColor=#000000;fontColor=#000000;" parent="1" vertex="1">
            <mxGeometry x="-517" y="549.249951171875" width="55" height="65" as="geometry" />
          </mxCell>
        </object>
        <object label="03-14" placeholders="1" UID="Y.03-14.A1" id="IS0zlsRFEMftx8v_LcZY-259">
          <mxCell style="rounded=0;whiteSpace=wrap;strokeWidth=2;fontSize=14;html=1;spacing=0;spacingTop=-2;verticalAlign=top;fontStyle=1;fillColor=#FFFFFF;strokeColor=#000000;fontColor=#000000;" parent="1" vertex="1">
            <mxGeometry x="-682" y="441.249951171875" width="55" height="65" as="geometry" />
          </mxCell>
        </object>
        <object label="04-14" placeholders="1" UID="Y.04-14.A1" id="IS0zlsRFEMftx8v_LcZY-260">
          <mxCell style="rounded=0;whiteSpace=wrap;strokeWidth=2;fontSize=14;html=1;spacing=0;spacingTop=-2;verticalAlign=top;fontStyle=1;fillColor=#FFFFFF;strokeColor=#000000;fontColor=#000000;" parent="1" vertex="1">
            <mxGeometry x="-627" y="441.249951171875" width="55" height="65" as="geometry" />
          </mxCell>
        </object>
        <object label="05-14" placeholders="1" UID="Y.05-14.A1" id="IS0zlsRFEMftx8v_LcZY-261">
          <mxCell style="rounded=0;whiteSpace=wrap;strokeWidth=2;fontSize=14;html=1;spacing=0;spacingTop=-2;verticalAlign=top;fontStyle=1;fillColor=#FFFFFF;strokeColor=#000000;fontColor=#000000;" parent="1" vertex="1">
            <mxGeometry x="-572" y="441.249951171875" width="55" height="65" as="geometry" />
          </mxCell>
        </object>
        <object label="06-14" placeholders="1" UID="Y.06-14.A1" id="IS0zlsRFEMftx8v_LcZY-262">
          <mxCell style="rounded=0;whiteSpace=wrap;strokeWidth=2;fontSize=14;html=1;spacing=0;spacingTop=-2;verticalAlign=top;fontStyle=1;fillColor=#FFFFFF;strokeColor=#000000;fontColor=#000000;" parent="1" vertex="1">
            <mxGeometry x="-517" y="441.249951171875" width="55" height="65" as="geometry" />
          </mxCell>
        </object>
        <object label="07-14" placeholders="1" UID="Y.07-14.A1" id="IS0zlsRFEMftx8v_LcZY-263">
          <mxCell style="rounded=0;whiteSpace=wrap;strokeWidth=2;fontSize=14;html=1;spacing=0;spacingTop=-2;verticalAlign=top;fontStyle=1;fillColor=#FFFFFF;strokeColor=#000000;fontColor=#000000;" parent="1" vertex="1">
            <mxGeometry x="-462" y="441.249951171875" width="55" height="65" as="geometry" />
          </mxCell>
        </object>
        <object label="08-14" placeholders="1" UID="Y.08-14.A1" id="IS0zlsRFEMftx8v_LcZY-264">
          <mxCell style="rounded=0;whiteSpace=wrap;strokeWidth=2;fontSize=14;html=1;spacing=0;spacingTop=-2;verticalAlign=top;fontStyle=1;fillColor=#FFFFFF;strokeColor=#000000;fontColor=#000000;" parent="1" vertex="1">
            <mxGeometry x="-407" y="441.249951171875" width="55" height="65" as="geometry" />
          </mxCell>
        </object>
        <object label="09-14" placeholders="1" UID="Y.09-14.A1" id="IS0zlsRFEMftx8v_LcZY-265">
          <mxCell style="rounded=0;whiteSpace=wrap;strokeWidth=2;fontSize=14;html=1;spacing=0;spacingTop=-2;verticalAlign=top;fontStyle=1;fillColor=#FFFFFF;strokeColor=#000000;fontColor=#000000;" parent="1" vertex="1">
            <mxGeometry x="-352" y="441.249951171875" width="55" height="65" as="geometry" />
          </mxCell>
        </object>
        <object label="03-16" placeholders="1" UID="Y.03-16.A1" id="IS0zlsRFEMftx8v_LcZY-267">
          <mxCell style="rounded=0;whiteSpace=wrap;strokeWidth=2;fontSize=14;html=1;spacing=0;spacingTop=-2;verticalAlign=top;fontStyle=1;fillColor=#FFFFFF;strokeColor=#000000;fontColor=#000000;" parent="1" vertex="1">
            <mxGeometry x="-682" y="346.249951171875" width="55" height="65" as="geometry" />
          </mxCell>
        </object>
        <object label="04-16" placeholders="1" UID="Y.04-16.A1" id="IS0zlsRFEMftx8v_LcZY-268">
          <mxCell style="rounded=0;whiteSpace=wrap;strokeWidth=2;fontSize=14;html=1;spacing=0;spacingTop=-2;verticalAlign=top;fontStyle=1;fillColor=#FFFFFF;strokeColor=#000000;fontColor=#000000;" parent="1" vertex="1">
            <mxGeometry x="-627" y="346.249951171875" width="55" height="65" as="geometry" />
          </mxCell>
        </object>
        <object label="05-16" placeholders="1" UID="Y.05-16.A1" id="IS0zlsRFEMftx8v_LcZY-269">
          <mxCell style="rounded=0;whiteSpace=wrap;strokeWidth=2;fontSize=14;html=1;spacing=0;spacingTop=-2;verticalAlign=top;fontStyle=1;fillColor=#FFFFFF;strokeColor=#000000;fontColor=#000000;" parent="1" vertex="1">
            <mxGeometry x="-572" y="346.249951171875" width="55" height="65" as="geometry" />
          </mxCell>
        </object>
        <object label="06-16" placeholders="1" UID="Y.06-16.A1" id="IS0zlsRFEMftx8v_LcZY-270">
          <mxCell style="rounded=0;whiteSpace=wrap;strokeWidth=2;fontSize=14;html=1;spacing=0;spacingTop=-2;verticalAlign=top;fontStyle=1;fillColor=#FFFFFF;strokeColor=#000000;fontColor=#000000;" parent="1" vertex="1">
            <mxGeometry x="-517" y="346.249951171875" width="55" height="65" as="geometry" />
          </mxCell>
        </object>
        <object label="07-16" placeholders="1" UID="Y.07-16.A1" id="IS0zlsRFEMftx8v_LcZY-271">
          <mxCell style="rounded=0;whiteSpace=wrap;strokeWidth=2;fontSize=14;html=1;spacing=0;spacingTop=-2;verticalAlign=top;fontStyle=1;fillColor=#FFFFFF;strokeColor=#000000;fontColor=#000000;" parent="1" vertex="1">
            <mxGeometry x="-462" y="346.249951171875" width="55" height="65" as="geometry" />
          </mxCell>
        </object>
        <object label="08-16" placeholders="1" UID="Y.08-16.A1" id="IS0zlsRFEMftx8v_LcZY-272">
          <mxCell style="rounded=0;whiteSpace=wrap;strokeWidth=2;fontSize=14;html=1;spacing=0;spacingTop=-2;verticalAlign=top;fontStyle=1;fillColor=#FFFFFF;strokeColor=#000000;fontColor=#000000;" parent="1" vertex="1">
            <mxGeometry x="-407" y="346.249951171875" width="55" height="65" as="geometry" />
          </mxCell>
        </object>
        <object label="09-16" placeholders="1" UID="Y.09-16.A1" id="IS0zlsRFEMftx8v_LcZY-273">
          <mxCell style="rounded=0;whiteSpace=wrap;strokeWidth=2;fontSize=14;html=1;spacing=0;spacingTop=-2;verticalAlign=top;fontStyle=1;fillColor=#FFFFFF;strokeColor=#000000;fontColor=#000000;" parent="1" vertex="1">
            <mxGeometry x="-352" y="346.249951171875" width="55" height="65" as="geometry" />
          </mxCell>
        </object>
        <object label="03-19" placeholders="1" UID="Y.03-19.A1" id="IS0zlsRFEMftx8v_LcZY-275">
          <mxCell style="rounded=0;whiteSpace=wrap;strokeWidth=2;fontSize=14;html=1;spacing=0;spacingTop=-2;verticalAlign=top;fontStyle=1;fillColor=#FFFFFF;strokeColor=#000000;fontColor=#000000;" parent="1" vertex="1">
            <mxGeometry x="-682" y="249.749951171875" width="55" height="65" as="geometry" />
          </mxCell>
        </object>
        <object label="04-19" placeholders="1" UID="Y.04-19.A1" id="IS0zlsRFEMftx8v_LcZY-276">
          <mxCell style="rounded=0;whiteSpace=wrap;strokeWidth=2;fontSize=14;html=1;spacing=0;spacingTop=-2;verticalAlign=top;fontStyle=1;fillColor=#FFFFFF;strokeColor=#000000;fontColor=#000000;" parent="1" vertex="1">
            <mxGeometry x="-627" y="249.749951171875" width="55" height="65" as="geometry" />
          </mxCell>
        </object>
        <object label="05-19" placeholders="1" UID="Y.05-19.A1" id="IS0zlsRFEMftx8v_LcZY-277">
          <mxCell style="rounded=0;whiteSpace=wrap;strokeWidth=2;fontSize=14;html=1;spacing=0;spacingTop=-2;verticalAlign=top;fontStyle=1;fillColor=#FFFFFF;strokeColor=#000000;fontColor=#000000;" parent="1" vertex="1">
            <mxGeometry x="-572" y="249.749951171875" width="55" height="65" as="geometry" />
          </mxCell>
        </object>
        <object label="06-19" placeholders="1" UID="Y.06-19.A1" id="IS0zlsRFEMftx8v_LcZY-278">
          <mxCell style="rounded=0;whiteSpace=wrap;strokeWidth=2;fontSize=14;html=1;spacing=0;spacingTop=-2;verticalAlign=top;fontStyle=1;fillColor=#FFFFFF;strokeColor=#000000;fontColor=#000000;" parent="1" vertex="1">
            <mxGeometry x="-517" y="249.749951171875" width="55" height="65" as="geometry" />
          </mxCell>
        </object>
        <mxCell id="7mU7ba0v8RgfDHqllulz-6" style="edgeStyle=orthogonalEdgeStyle;rounded=0;orthogonalLoop=1;jettySize=auto;html=1;" parent="1" target="IS0zlsRFEMftx8v_LcZY-279" edge="1">
          <mxGeometry relative="1" as="geometry">
            <mxPoint x="-434.5" y="215.55" as="sourcePoint" />
          </mxGeometry>
        </mxCell>
        <object label="07-19" placeholders="1" UID="Y.07-19.A1" id="IS0zlsRFEMftx8v_LcZY-279">
          <mxCell style="rounded=0;whiteSpace=wrap;strokeWidth=2;fontSize=14;html=1;spacing=0;spacingTop=-2;verticalAlign=top;fontStyle=1;fillColor=#FFFFFF;strokeColor=#000000;fontColor=#000000;" parent="1" vertex="1">
            <mxGeometry x="-462" y="249.749951171875" width="55" height="65" as="geometry" />
          </mxCell>
        </object>
        <mxCell id="7mU7ba0v8RgfDHqllulz-3" style="edgeStyle=orthogonalEdgeStyle;rounded=0;orthogonalLoop=1;jettySize=auto;html=1;startArrow=none;" parent="1" source="7mU7ba0v8RgfDHqllulz-4" target="IS0zlsRFEMftx8v_LcZY-280" edge="1">
          <mxGeometry relative="1" as="geometry">
            <mxPoint x="-379.5" y="215.55" as="sourcePoint" />
          </mxGeometry>
        </mxCell>
        <object label="08-19" placeholders="1" UID="Y.08-19.A1" id="IS0zlsRFEMftx8v_LcZY-280">
          <mxCell style="rounded=0;whiteSpace=wrap;strokeWidth=2;fontSize=14;html=1;spacing=0;spacingTop=-2;verticalAlign=top;fontStyle=1;fillColor=#FFFFFF;strokeColor=#000000;fontColor=#000000;" parent="1" vertex="1">
            <mxGeometry x="-407" y="249.749951171875" width="55" height="65" as="geometry" />
          </mxCell>
        </object>
        <object label="09-19" placeholders="1" UID="Y.09-19.A1" id="IS0zlsRFEMftx8v_LcZY-281">
          <mxCell style="rounded=0;whiteSpace=wrap;strokeWidth=2;fontSize=14;html=1;spacing=0;spacingTop=-2;verticalAlign=top;fontStyle=1;fillColor=#FFFFFF;strokeColor=#000000;fontColor=#000000;" parent="1" vertex="1">
            <mxGeometry x="-352" y="249.749951171875" width="55" height="65" as="geometry" />
          </mxCell>
        </object>
        <object label="ESD3/15A" placeholders="1" UID="ESD3_15A" id="IS0zlsRFEMftx8v_LcZY-306">
          <mxCell style="rounded=0;whiteSpace=wrap;strokeWidth=2;fillColor=#2F39AE;fontSize=12;html=1;spacing=0;spacingTop=-2;verticalAlign=top;fontColor=#FFFFFF;fontStyle=1;strokeColor=#FA8042;" parent="1" vertex="1">
            <mxGeometry x="-180" y="558.6900390625" width="96" height="46" as="geometry" />
          </mxCell>
        </object>
        <mxCell id="IS0zlsRFEMftx8v_LcZY-307" value="" style="endArrow=block;html=1;strokeColor=#FA8042;strokeWidth=2;exitX=0.5;exitY=0;exitDx=0;exitDy=0;endFill=1;rounded=0;jumpStyle=gap;entryX=0.5;entryY=0;entryDx=0;entryDy=0;" parent="1" source="IS0zlsRFEMftx8v_LcZY-306" target="IS0zlsRFEMftx8v_LcZY-253" edge="1">
          <mxGeometry width="50" height="50" relative="1" as="geometry">
            <mxPoint x="41.000000000000455" y="104.05" as="sourcePoint" />
            <mxPoint x="-589.5" y="559.249951171875" as="targetPoint" />
            <Array as="points">
              <mxPoint x="-132" y="524.05" />
              <mxPoint x="-544" y="524.05" />
            </Array>
          </mxGeometry>
        </mxCell>
        <mxCell id="IS0zlsRFEMftx8v_LcZY-308" value="" style="endArrow=block;html=1;strokeColor=#FA8042;strokeWidth=2;exitX=0.5;exitY=0;exitDx=0;exitDy=0;endFill=1;rounded=0;jumpStyle=gap;entryX=0.5;entryY=0;entryDx=0;entryDy=0;" parent="1" source="IS0zlsRFEMftx8v_LcZY-306" target="IS0zlsRFEMftx8v_LcZY-254" edge="1">
          <mxGeometry width="50" height="50" relative="1" as="geometry">
            <mxPoint x="-122" y="568.6900390624994" as="sourcePoint" />
            <mxPoint x="-534.5" y="559.249951171875" as="targetPoint" />
            <Array as="points">
              <mxPoint x="-132" y="524.05" />
              <mxPoint x="-489" y="524.05" />
            </Array>
          </mxGeometry>
        </mxCell>
        <mxCell id="IS0zlsRFEMftx8v_LcZY-309" value="" style="endArrow=block;html=1;strokeColor=#FA8042;strokeWidth=2;exitX=0.5;exitY=0;exitDx=0;exitDy=0;endFill=1;rounded=0;jumpStyle=gap;entryX=0.5;entryY=1;entryDx=0;entryDy=0;" parent="1" source="IS0zlsRFEMftx8v_LcZY-306" target="IS0zlsRFEMftx8v_LcZY-262" edge="1">
          <mxGeometry width="50" height="50" relative="1" as="geometry">
            <mxPoint x="-122" y="568.6900390624999" as="sourcePoint" />
            <mxPoint x="-479.5" y="559.249951171875" as="targetPoint" />
            <Array as="points">
              <mxPoint x="-132" y="524.05" />
              <mxPoint x="-489" y="524.05" />
            </Array>
          </mxGeometry>
        </mxCell>
        <mxCell id="IS0zlsRFEMftx8v_LcZY-310" value="" style="endArrow=block;html=1;strokeColor=#FA8042;strokeWidth=2;exitX=0.5;exitY=0;exitDx=0;exitDy=0;endFill=1;rounded=0;jumpStyle=gap;entryX=0.5;entryY=1;entryDx=0;entryDy=0;" parent="1" source="IS0zlsRFEMftx8v_LcZY-306" target="IS0zlsRFEMftx8v_LcZY-263" edge="1">
          <mxGeometry width="50" height="50" relative="1" as="geometry">
            <mxPoint x="-122" y="568.6900390624999" as="sourcePoint" />
            <mxPoint x="-479.5" y="523.249951171875" as="targetPoint" />
            <Array as="points">
              <mxPoint x="-132" y="524.05" />
              <mxPoint x="-434" y="524.05" />
            </Array>
          </mxGeometry>
        </mxCell>
        <mxCell id="fTY3geFnEKra-hLzidtL-5" style="edgeStyle=orthogonalEdgeStyle;rounded=0;jumpStyle=arc;orthogonalLoop=1;jettySize=auto;html=1;exitX=0;exitY=0.25;exitDx=0;exitDy=0;entryX=0.5;entryY=0;entryDx=0;entryDy=0;startArrow=none;startFill=0;strokeWidth=2;strokeColor=#FA8042;" parent="1" source="mnc7tSvw6vl5VTc4aQ45-1" target="fTY3geFnEKra-hLzidtL-1" edge="1">
          <mxGeometry relative="1" as="geometry">
            <Array as="points">
              <mxPoint x="-173" y="55.55" />
              <mxPoint x="-190" y="55.55" />
              <mxPoint x="-190" y="25.55" />
              <mxPoint x="158" y="25.55" />
            </Array>
          </mxGeometry>
        </mxCell>
        <mxCell id="lQeiWrQF34pSRJnGN1i1-1" style="edgeStyle=orthogonalEdgeStyle;rounded=0;orthogonalLoop=1;jettySize=auto;html=1;entryX=0;entryY=0.5;entryDx=0;entryDy=0;strokeColor=#FA8042;" parent="1" source="mnc7tSvw6vl5VTc4aQ45-1" target="IS0zlsRFEMftx8v_LcZY-47" edge="1">
          <mxGeometry relative="1" as="geometry" />
        </mxCell>
        <object label="EOD1/15A" placeholders="1" UID="EOD1_15A" id="mnc7tSvw6vl5VTc4aQ45-1">
          <mxCell style="rounded=0;whiteSpace=wrap;strokeWidth=2;fillColor=#2F39AE;fontSize=12;html=1;spacing=0;spacingTop=-2;verticalAlign=top;fontColor=#FFFFFF;fontStyle=1;strokeColor=#FA8042;" parent="1" vertex="1">
            <mxGeometry x="-173" y="48.05" width="96" height="46" as="geometry" />
          </mxCell>
        </object>
        <object label="09-12" placeholders="1" UID="Y.09-12.A1" id="NZ8Xwu2ELfmgDQ5MNSC5-4">
          <mxCell style="rounded=0;whiteSpace=wrap;strokeWidth=2;fontSize=14;html=1;spacing=0;spacingTop=-2;verticalAlign=top;fontStyle=1;fillColor=#FFFFFF;strokeColor=#000000;fontColor=#000000;" parent="1" vertex="1">
            <mxGeometry x="-352" y="549.249951171875" width="55" height="65" as="geometry" />
          </mxCell>
        </object>
        <object label="EOD5/15A" placeholders="1" UID="EOD5_15A" id="fTY3geFnEKra-hLzidtL-1">
          <mxCell style="rounded=0;whiteSpace=wrap;strokeWidth=2;fillColor=#2F39AE;fontSize=12;html=1;spacing=0;spacingTop=-2;verticalAlign=top;fontColor=#FFFFFF;fontStyle=1;strokeColor=#FA8042;" parent="1" vertex="1">
            <mxGeometry x="110" y="48.05" width="96" height="46" as="geometry" />
          </mxCell>
        </object>
        <mxCell id="fTY3geFnEKra-hLzidtL-31" value="" style="rounded=0;whiteSpace=wrap;html=1;fillColor=#fff2cc;strokeColor=#d6b656;" parent="1" vertex="1">
          <mxGeometry x="-407" y="42.55" width="165" height="61" as="geometry" />
        </mxCell>
        <object label="EOD8/15A" placeholders="1" UID="EOD8_15A" id="fTY3geFnEKra-hLzidtL-2">
          <mxCell style="rounded=0;whiteSpace=wrap;strokeWidth=2;fillColor=#2F39AE;fontSize=12;html=1;spacing=0;spacingTop=-2;verticalAlign=top;fontColor=#FFFFFF;fontStyle=1;strokeColor=#FA8042;" parent="1" vertex="1">
            <mxGeometry x="-352" y="48.05" width="96" height="46" as="geometry" />
          </mxCell>
        </object>
        <mxCell id="fTY3geFnEKra-hLzidtL-4" style="edgeStyle=orthogonalEdgeStyle;rounded=0;jumpStyle=arc;orthogonalLoop=1;jettySize=auto;html=1;exitX=0;exitY=0.5;exitDx=0;exitDy=0;entryX=1;entryY=0.5;entryDx=0;entryDy=0;startArrow=none;startFill=0;strokeWidth=2;strokeColor=#FA8042;" parent="1" source="mnc7tSvw6vl5VTc4aQ45-1" target="fTY3geFnEKra-hLzidtL-2" edge="1">
          <mxGeometry relative="1" as="geometry" />
        </mxCell>
        <UserObject label="LVL3" placeholders="1" name="Variable" id="fTY3geFnEKra-hLzidtL-32">
          <mxCell style="text;html=1;strokeColor=none;fillColor=none;align=center;verticalAlign=middle;whiteSpace=wrap;overflow=hidden;" parent="1" vertex="1">
            <mxGeometry x="-427" y="50.05" width="80" height="20" as="geometry" />
          </mxCell>
        </UserObject>
        <object label="16-02" placeholders="1" UID="Y.16-02.A1" id="0zBkZ2-o7jU5EZMLRNBc-1">
          <mxCell style="rounded=0;whiteSpace=wrap;strokeWidth=2;fontSize=14;html=1;spacing=0;spacingTop=-2;verticalAlign=top;fontStyle=1;fillColor=#FFFFFF;strokeColor=#000000;fontColor=#000000;" parent="1" vertex="1">
            <mxGeometry x="33" y="849.249951171875" width="55" height="65" as="geometry" />
          </mxCell>
        </object>
        <mxCell id="7mU7ba0v8RgfDHqllulz-2" style="edgeStyle=orthogonalEdgeStyle;rounded=0;orthogonalLoop=1;jettySize=auto;html=1;exitDx=0;exitDy=0;entryX=0.5;entryY=0;entryDx=0;entryDy=0;startArrow=none;" parent="1" source="7mU7ba0v8RgfDHqllulz-7" target="IS0zlsRFEMftx8v_LcZY-281" edge="1">
          <mxGeometry relative="1" as="geometry" />
        </mxCell>
        <mxCell id="7mU7ba0v8RgfDHqllulz-4" value="" style="shape=waypoint;sketch=0;fillStyle=solid;size=6;pointerEvents=1;points=[];fillColor=none;resizable=0;rotatable=0;perimeter=centerPerimeter;snapToPoint=1;" parent="1" vertex="1">
          <mxGeometry x="-399.5" y="194.55" width="40" height="40" as="geometry" />
        </mxCell>
        <mxCell id="7mU7ba0v8RgfDHqllulz-5" value="" style="edgeStyle=orthogonalEdgeStyle;rounded=0;orthogonalLoop=1;jettySize=auto;html=1;endArrow=none;" parent="1" target="7mU7ba0v8RgfDHqllulz-4" edge="1">
          <mxGeometry relative="1" as="geometry">
            <mxPoint x="-379.5" y="249.749951171875" as="targetPoint" />
            <mxPoint x="-379.5" y="215.55" as="sourcePoint" />
          </mxGeometry>
        </mxCell>
        <mxCell id="7mU7ba0v8RgfDHqllulz-7" value="" style="shape=waypoint;sketch=0;fillStyle=solid;size=6;pointerEvents=1;points=[];fillColor=none;resizable=0;rotatable=0;perimeter=centerPerimeter;snapToPoint=1;" parent="1" vertex="1">
          <mxGeometry x="-454.5" y="194.55" width="40" height="40" as="geometry" />
        </mxCell>
        <mxCell id="7mU7ba0v8RgfDHqllulz-8" value="" style="edgeStyle=orthogonalEdgeStyle;rounded=0;orthogonalLoop=1;jettySize=auto;html=1;exitX=0;exitY=0.5;exitDx=0;exitDy=0;entryDx=0;entryDy=0;endArrow=none;" parent="1" source="ccOayWsjpMcwyos4AWnh-2" target="7mU7ba0v8RgfDHqllulz-7" edge="1">
          <mxGeometry relative="1" as="geometry">
            <mxPoint x="-726.5" y="234.25003906250004" as="sourcePoint" />
            <mxPoint x="-324.5" y="249.749951171875" as="targetPoint" />
            <Array as="points">
              <mxPoint x="-742" y="215" />
              <mxPoint x="-587" y="215" />
            </Array>
          </mxGeometry>
        </mxCell>
        <mxCell id="7mU7ba0v8RgfDHqllulz-15" style="edgeStyle=orthogonalEdgeStyle;rounded=0;orthogonalLoop=1;jettySize=auto;html=1;entryX=0.25;entryY=0;entryDx=0;entryDy=0;" parent="1" source="7mU7ba0v8RgfDHqllulz-9" target="IS0zlsRFEMftx8v_LcZY-222" edge="1">
          <mxGeometry relative="1" as="geometry" />
        </mxCell>
        <mxCell id="7mU7ba0v8RgfDHqllulz-16" style="edgeStyle=orthogonalEdgeStyle;rounded=0;orthogonalLoop=1;jettySize=auto;html=1;entryX=0.25;entryY=0;entryDx=0;entryDy=0;" parent="1" source="7mU7ba0v8RgfDHqllulz-9" target="IS0zlsRFEMftx8v_LcZY-192" edge="1">
          <mxGeometry relative="1" as="geometry" />
        </mxCell>
        <mxCell id="7mU7ba0v8RgfDHqllulz-22" style="edgeStyle=orthogonalEdgeStyle;rounded=0;orthogonalLoop=1;jettySize=auto;html=1;entryX=0.25;entryY=0;entryDx=0;entryDy=0;" parent="1" source="7mU7ba0v8RgfDHqllulz-9" target="IS0zlsRFEMftx8v_LcZY-223" edge="1">
          <mxGeometry relative="1" as="geometry" />
        </mxCell>
        <mxCell id="7mU7ba0v8RgfDHqllulz-23" style="edgeStyle=orthogonalEdgeStyle;rounded=0;orthogonalLoop=1;jettySize=auto;html=1;entryX=0.25;entryY=0;entryDx=0;entryDy=0;" parent="1" source="7mU7ba0v8RgfDHqllulz-9" target="IS0zlsRFEMftx8v_LcZY-224" edge="1">
          <mxGeometry relative="1" as="geometry" />
        </mxCell>
        <mxCell id="7mU7ba0v8RgfDHqllulz-24" style="edgeStyle=orthogonalEdgeStyle;rounded=0;orthogonalLoop=1;jettySize=auto;html=1;entryX=0.25;entryY=0;entryDx=0;entryDy=0;" parent="1" source="7mU7ba0v8RgfDHqllulz-9" target="IS0zlsRFEMftx8v_LcZY-225" edge="1">
          <mxGeometry relative="1" as="geometry" />
        </mxCell>
        <mxCell id="7mU7ba0v8RgfDHqllulz-25" style="edgeStyle=orthogonalEdgeStyle;rounded=0;orthogonalLoop=1;jettySize=auto;html=1;entryX=0.25;entryY=0;entryDx=0;entryDy=0;" parent="1" source="7mU7ba0v8RgfDHqllulz-9" target="IS0zlsRFEMftx8v_LcZY-226" edge="1">
          <mxGeometry relative="1" as="geometry" />
        </mxCell>
        <mxCell id="7mU7ba0v8RgfDHqllulz-26" style="edgeStyle=orthogonalEdgeStyle;rounded=0;orthogonalLoop=1;jettySize=auto;html=1;entryX=0.25;entryY=0;entryDx=0;entryDy=0;" parent="1" source="7mU7ba0v8RgfDHqllulz-9" target="IS0zlsRFEMftx8v_LcZY-227" edge="1">
          <mxGeometry relative="1" as="geometry" />
        </mxCell>
        <mxCell id="7mU7ba0v8RgfDHqllulz-27" style="edgeStyle=orthogonalEdgeStyle;rounded=0;orthogonalLoop=1;jettySize=auto;html=1;entryX=0.25;entryY=0;entryDx=0;entryDy=0;" parent="1" source="7mU7ba0v8RgfDHqllulz-9" target="IS0zlsRFEMftx8v_LcZY-228" edge="1">
          <mxGeometry relative="1" as="geometry" />
        </mxCell>
        <mxCell id="7mU7ba0v8RgfDHqllulz-28" style="edgeStyle=orthogonalEdgeStyle;rounded=0;orthogonalLoop=1;jettySize=auto;html=1;entryX=0.25;entryY=0;entryDx=0;entryDy=0;" parent="1" source="7mU7ba0v8RgfDHqllulz-9" target="IS0zlsRFEMftx8v_LcZY-207" edge="1">
          <mxGeometry relative="1" as="geometry" />
        </mxCell>
        <mxCell id="7mU7ba0v8RgfDHqllulz-29" style="edgeStyle=orthogonalEdgeStyle;rounded=0;orthogonalLoop=1;jettySize=auto;html=1;entryX=0.25;entryY=0;entryDx=0;entryDy=0;" parent="1" source="7mU7ba0v8RgfDHqllulz-9" target="IS0zlsRFEMftx8v_LcZY-208" edge="1">
          <mxGeometry relative="1" as="geometry" />
        </mxCell>
        <mxCell id="7mU7ba0v8RgfDHqllulz-30" style="edgeStyle=orthogonalEdgeStyle;rounded=0;orthogonalLoop=1;jettySize=auto;html=1;entryX=0.25;entryY=0;entryDx=0;entryDy=0;" parent="1" source="7mU7ba0v8RgfDHqllulz-9" target="IS0zlsRFEMftx8v_LcZY-209" edge="1">
          <mxGeometry relative="1" as="geometry" />
        </mxCell>
        <mxCell id="7mU7ba0v8RgfDHqllulz-31" style="edgeStyle=orthogonalEdgeStyle;rounded=0;orthogonalLoop=1;jettySize=auto;html=1;entryX=0.25;entryY=0;entryDx=0;entryDy=0;" parent="1" source="7mU7ba0v8RgfDHqllulz-9" target="IS0zlsRFEMftx8v_LcZY-210" edge="1">
          <mxGeometry relative="1" as="geometry" />
        </mxCell>
        <mxCell id="7mU7ba0v8RgfDHqllulz-32" style="edgeStyle=orthogonalEdgeStyle;rounded=0;orthogonalLoop=1;jettySize=auto;html=1;entryX=0.25;entryY=0;entryDx=0;entryDy=0;" parent="1" source="7mU7ba0v8RgfDHqllulz-9" target="IS0zlsRFEMftx8v_LcZY-211" edge="1">
          <mxGeometry relative="1" as="geometry" />
        </mxCell>
        <mxCell id="7mU7ba0v8RgfDHqllulz-33" style="edgeStyle=orthogonalEdgeStyle;rounded=0;orthogonalLoop=1;jettySize=auto;html=1;entryX=0.25;entryY=0;entryDx=0;entryDy=0;" parent="1" source="7mU7ba0v8RgfDHqllulz-9" target="IS0zlsRFEMftx8v_LcZY-212" edge="1">
          <mxGeometry relative="1" as="geometry" />
        </mxCell>
        <mxCell id="7mU7ba0v8RgfDHqllulz-34" style="edgeStyle=orthogonalEdgeStyle;rounded=0;orthogonalLoop=1;jettySize=auto;html=1;entryX=0.25;entryY=0;entryDx=0;entryDy=0;" parent="1" source="7mU7ba0v8RgfDHqllulz-9" target="IS0zlsRFEMftx8v_LcZY-213" edge="1">
          <mxGeometry relative="1" as="geometry" />
        </mxCell>
        <mxCell id="7mU7ba0v8RgfDHqllulz-35" style="edgeStyle=orthogonalEdgeStyle;rounded=0;orthogonalLoop=1;jettySize=auto;html=1;entryX=0.25;entryY=0;entryDx=0;entryDy=0;" parent="1" source="7mU7ba0v8RgfDHqllulz-9" target="0zBkZ2-o7jU5EZMLRNBc-1" edge="1">
          <mxGeometry relative="1" as="geometry" />
        </mxCell>
        <mxCell id="7mU7ba0v8RgfDHqllulz-36" style="edgeStyle=orthogonalEdgeStyle;rounded=0;orthogonalLoop=1;jettySize=auto;html=1;entryX=0.25;entryY=0;entryDx=0;entryDy=0;" parent="1" source="7mU7ba0v8RgfDHqllulz-9" target="IS0zlsRFEMftx8v_LcZY-194" edge="1">
          <mxGeometry relative="1" as="geometry" />
        </mxCell>
        <mxCell id="7mU7ba0v8RgfDHqllulz-37" style="edgeStyle=orthogonalEdgeStyle;rounded=0;orthogonalLoop=1;jettySize=auto;html=1;entryX=0.25;entryY=0;entryDx=0;entryDy=0;" parent="1" source="7mU7ba0v8RgfDHqllulz-9" target="IS0zlsRFEMftx8v_LcZY-184" edge="1">
          <mxGeometry relative="1" as="geometry" />
        </mxCell>
        <mxCell id="7mU7ba0v8RgfDHqllulz-38" style="edgeStyle=orthogonalEdgeStyle;rounded=0;orthogonalLoop=1;jettySize=auto;html=1;entryX=0.218;entryY=0.1;entryDx=0;entryDy=0;entryPerimeter=0;" parent="1" source="7mU7ba0v8RgfDHqllulz-9" target="IS0zlsRFEMftx8v_LcZY-185" edge="1">
          <mxGeometry relative="1" as="geometry" />
        </mxCell>
        <mxCell id="7mU7ba0v8RgfDHqllulz-39" style="edgeStyle=orthogonalEdgeStyle;rounded=0;orthogonalLoop=1;jettySize=auto;html=1;entryX=0.25;entryY=0;entryDx=0;entryDy=0;" parent="1" source="7mU7ba0v8RgfDHqllulz-9" target="IS0zlsRFEMftx8v_LcZY-186" edge="1">
          <mxGeometry relative="1" as="geometry" />
        </mxCell>
        <mxCell id="7mU7ba0v8RgfDHqllulz-40" style="edgeStyle=orthogonalEdgeStyle;rounded=0;orthogonalLoop=1;jettySize=auto;html=1;entryX=0.25;entryY=0;entryDx=0;entryDy=0;" parent="1" source="7mU7ba0v8RgfDHqllulz-9" target="IS0zlsRFEMftx8v_LcZY-187" edge="1">
          <mxGeometry relative="1" as="geometry" />
        </mxCell>
        <mxCell id="7mU7ba0v8RgfDHqllulz-41" style="edgeStyle=orthogonalEdgeStyle;rounded=0;orthogonalLoop=1;jettySize=auto;html=1;entryX=0.25;entryY=0;entryDx=0;entryDy=0;" parent="1" source="7mU7ba0v8RgfDHqllulz-9" target="IS0zlsRFEMftx8v_LcZY-188" edge="1">
          <mxGeometry relative="1" as="geometry" />
        </mxCell>
        <mxCell id="7mU7ba0v8RgfDHqllulz-9" value="" style="shape=waypoint;sketch=0;fillStyle=solid;size=6;pointerEvents=1;points=[];fillColor=none;resizable=0;rotatable=0;perimeter=centerPerimeter;snapToPoint=1;" parent="1" vertex="1">
          <mxGeometry x="260.5" y="805.55" width="40" height="40" as="geometry" />
        </mxCell>
        <mxCell id="7mU7ba0v8RgfDHqllulz-10" value="" style="endArrow=none;html=1;rounded=0;strokeWidth=2;endFill=1;strokeColor=#000000;entryDx=0;entryDy=0;exitX=0.5;exitY=1;exitDx=0;exitDy=0;" parent="1" source="IS0zlsRFEMftx8v_LcZY-44" target="7mU7ba0v8RgfDHqllulz-9" edge="1">
          <mxGeometry width="50" height="50" relative="1" as="geometry">
            <mxPoint x="280.0000000000009" y="94.05" as="sourcePoint" />
            <mxPoint x="280.5" y="849.05" as="targetPoint" />
          </mxGeometry>
        </mxCell>
        <mxCell id="7mU7ba0v8RgfDHqllulz-17" value="" style="shape=waypoint;sketch=0;fillStyle=solid;size=6;pointerEvents=1;points=[];fillColor=none;resizable=0;rotatable=0;perimeter=centerPerimeter;snapToPoint=1;" parent="1" vertex="1">
          <mxGeometry x="100" y="355.55" width="40" height="40" as="geometry" />
        </mxCell>
        <object label="EXD9/15A" uid="EXD9_15A" id="ccOayWsjpMcwyos4AWnh-2">
          <mxCell style="rounded=0;whiteSpace=wrap;html=1;verticalAlign=top;fillColor=#2F39AE;strokeColor=#FA8042;fontColor=#FFFFFF;strokeWidth=2;spacing=0;spacingTop=0;fontStyle=1;rotation=90;spacingLeft=0;align=center;" parent="1" vertex="1">
            <mxGeometry x="-790" y="268.75" width="96" height="46" as="geometry" />
          </mxCell>
        </object>
      </root>
    </mxGraphModel>
  </diagram>
</mxfile>
