AL_L2_CO2_SXSN1, DI_L2_CO2_SXSN1_SGGAZ1060
AL_L2_CO2_SR1, DI_L2_CO2_SR1_SGGAZ1060
AL_INF_SR1_Evacuation, DI_INF_SR1_Evacuation_SFDIN401
AL_INF_SCX1_Evacuation, DI_INF_SCX1_Evacuation_SFDIN401
AL_INF_Smoke_SXSN1_Compressor, DI_INF_Smoke_SXSN1_Compressor_SFDIN401
AL_INF_Smoke_SXSN1_Electrical, DI_INF_Smoke_SXSN1_Electrical_SFDIN401
AL_INF_Smoke_SXSN1_Mezzanine, DI_INF_Smoke_SXSN1_Mezzanine_SFDIN401
AL_INF_Smoke_SXSN1_UPS, DI_INF_Smoke_SXSN1_UPS_SFDIN401
AL_INF_Smoke_SXSN1_Battery, DI_INF_Smoke_SXSN1_Battery_SFDIN401
AL_INF_Smoke_SDX1_Batteries, DI_INF_Smoke_SDX1_Batteries_SFDIN401
AL_INF_Smoke_SDX1_Electrical, DI_INF_Smoke_SDX1_Electrical_SFDIN401
AL_INF_Smoke_SR1_EMF, DI_INF_Smoke_SR1_EMF_SFDIN401
AL_INF_Smoke_SR1_CleanRoom, DI_INF_Smoke_SR1_CleanRoom_SFDIN401
AL_INF_Smoke_SR1_TestRoom, DI_INF_Smoke_SR1_TestRoom_SFDIN401
AL_INF_Smoke_SR1_RadLab, DI_INF_Smoke_SR1_RadLab_SFDIN401
AL_INF_Smoke_SR1_LaserLab, DI_INF_Smoke_SR1_LaserLab_SFDIN401