# Os for DSU8, crate, slot, channel, cable, 
O_INF_SR1_EMF                          , upper, 5, 1, 2834651, 1-2
O_COL_ITK_SR1_GoToWarm                 , upper, 5, 2, 2834916, 1-2
O_COL_ITK_SR1_Stop                     , upper, 5, 3, 2834916, 3-4